<?xml version="1.0" standalone="no"?>
<!DOCTYPE svg PUBLIC "-//W3C//DTD SVG 1.1//EN" "http://www.w3.org/Graphics/SVG/1.1/DTD/svg11.dtd" >
<svg xmlns="http://www.w3.org/2000/svg">
<metadata>Generated by IcoMoon</metadata>
<defs>
<font id="icomoon" horiz-adv-x="1024">
<font-face units-per-em="1024" ascent="960" descent="-64" />
<missing-glyph horiz-adv-x="1024" />
<glyph unicode="&#x20;" horiz-adv-x="512" d="" />
<glyph unicode="&#xe900;" glyph-name="black-back-closed-envelope-shape-1" d="M932.564 45.713c23.018 0 42.963 7.6 59.918 22.607l-290.116 290.127c-6.961-4.984-13.707-9.831-20.080-14.44-21.711-15.996-39.332-28.478-52.863-37.422-13.529-8.965-31.529-18.102-53.998-27.431-22.484-9.34-43.431-13.996-62.863-13.996h-1.138c-19.433 0-40.38 4.653-62.863 13.996-22.482 9.329-40.483 18.467-53.998 27.431-13.529 8.944-31.14 21.425-52.863 37.422-6.053 4.438-12.767 9.307-20.025 14.518l-290.171-290.205c16.953-15.007 36.911-22.607 59.927-22.607h841.132zM57.72 541.14c-21.709 14.473-40.96 31.049-57.72 49.721v-441.404l255.707 255.707c-51.156 35.714-117.068 80.987-197.986 135.977zM966.858 541.14c-77.833-52.68-143.984-98.032-198.462-136.079l255.604-255.616v441.415c-16.388-18.296-35.433-34.861-57.142-49.721zM932.564 850.287h-841.13c-29.345 0-51.905-9.909-67.71-29.707-15.817-19.807-23.713-44.578-23.713-74.285 0-23.996 10.478-49.996 31.425-78.007 20.947-28 43.236-49.994 66.856-65.992 12.949-9.149 51.998-36.296 117.148-81.432 35.169-24.371 65.754-45.614 92.036-63.945 22.403-15.609 41.723-29.127 57.674-40.345 1.831-1.285 4.711-3.345 8.533-6.077 4.118-2.958 9.329-6.711 15.758-11.354 12.38-8.954 22.665-16.191 30.856-21.72 8.18-5.531 18.091-11.709 29.718-18.569 11.618-6.851 22.575-12.003 32.86-15.429 10.287-3.425 19.809-5.142 28.569-5.142h1.138c8.758 0 18.283 1.718 28.571 5.142 10.283 3.426 21.231 8.567 32.858 15.429 11.616 6.86 21.514 13.051 29.72 18.569 8.191 5.529 18.476 12.765 30.858 21.72 6.416 4.642 11.627 8.398 15.745 11.344 3.824 2.744 6.702 4.791 8.545 6.087 12.426 8.647 31.791 22.109 57.826 40.187 47.374 32.916 117.144 81.363 209.602 145.535 27.807 19.422 51.039 42.86 69.71 70.281 18.638 27.42 27.982 56.183 27.982 86.279 0 25.145-9.060 46.66-27.14 64.581-18.1 17.898-39.534 26.851-64.296 26.851z" />
<glyph unicode="&#xe901;" glyph-name="old-typical-phone" d="M517.627 715.537c172.542-1.693 280.633 9.042 295.232-182.202h210.405c0 296.267-258.385 336.201-511.114 336.201-252.749 0-511.114-39.934-511.114-336.201h208.771c16.153 194.889 136.711 183.875 307.819 182.202zM105.382 438.091c51.247 0 93.889-3.067 103.37 47.343 1.275 6.851 2.012 14.619 2.012 23.602h-210.763c0-74.988 47.184-70.945 105.382-70.945zM814.213 509.036h-1.972c0-9.042 0.777-16.83 2.231-23.602 9.998-46.487 52.581-43.599 103.649-43.599 58.477 0 105.88-3.844 105.88 67.2h-209.787zM711.42 560.104v29.796c0 13.325-15.356 14.161-34.317 14.161h-30.971c-18.941 0-34.297-0.837-34.297-14.161v-45.59h-219.089v45.59c0 13.325-15.356 14.161-34.297 14.161h-30.991c-18.941 0-34.297-0.837-34.297-14.161v-55.808c-49.912-51.864-213.233-272.646-219.168-299.375l0.080-178.358c0-16.471 13.404-29.876 29.876-29.876h796.686c16.471 0 29.876 13.404 29.876 29.876v179.254c-5.876 25.952-169.156 246.634-219.089 298.498v25.992zM381.951 210.717c-16.033 0-29.039 12.986-29.039 29.039s13.006 29.039 29.039 29.039 29.039-12.986 29.039-29.039-13.006-29.039-29.039-29.039zM381.951 310.303c-16.033 0-29.039 12.986-29.039 29.039s13.006 29.039 29.039 29.039 29.039-12.986 29.039-29.039-13.006-29.039-29.039-29.039zM381.951 409.869c-16.033 0-29.039 12.986-29.039 29.039 0 16.033 13.006 29.039 29.039 29.039s29.039-13.006 29.039-29.039c0-16.053-13.006-29.039-29.039-29.039zM501.454 210.717c-16.033 0-29.039 12.986-29.039 29.039s13.006 29.039 29.039 29.039c16.053 0 29.039-12.986 29.039-29.039s-12.986-29.039-29.039-29.039zM501.454 310.303c-16.033 0-29.039 12.986-29.039 29.039s13.006 29.039 29.039 29.039c16.053 0 29.039-12.986 29.039-29.039s-12.986-29.039-29.039-29.039zM501.454 409.869c-16.033 0-29.039 12.986-29.039 29.039 0 16.033 13.006 29.039 29.039 29.039 16.053 0 29.039-13.006 29.039-29.039 0-16.053-12.986-29.039-29.039-29.039zM620.957 210.717c-16.053 0-29.039 12.986-29.039 29.039s12.986 29.039 29.039 29.039 29.039-12.986 29.039-29.039-12.986-29.039-29.039-29.039zM620.957 310.303c-16.053 0-29.039 12.986-29.039 29.039s12.986 29.039 29.039 29.039 29.039-12.986 29.039-29.039-12.986-29.039-29.039-29.039zM620.957 409.869c-16.053 0-29.039 12.986-29.039 29.039 0 16.033 12.986 29.039 29.039 29.039s29.039-13.006 29.039-29.039c0-16.053-12.986-29.039-29.039-29.039z" />
<glyph unicode="&#xe902;" glyph-name="facebook-logo" d="M767.965 959.787l-132.79 0.213c-149.185 0-245.595-98.913-245.595-252.008v-116.192h-133.514c-11.537 0-20.88-9.353-20.88-20.891v-168.35c0-11.537 9.353-20.88 20.88-20.88h133.514v-424.8c0-11.537 9.343-20.88 20.88-20.88h174.198c11.537 0 20.88 9.353 20.88 20.88v424.8h156.109c11.537 0 20.88 9.343 20.88 20.88l0.064 168.35c0 5.54-2.205 10.845-6.115 14.765s-9.236 6.125-14.776 6.125h-156.163v98.498c0 47.342 11.282 71.375 72.952 71.375l89.453 0.032c11.527 0 20.869 9.353 20.869 20.88v156.322c0 11.516-9.332 20.859-20.848 20.88z" />
<glyph unicode="&#xe903;" glyph-name="google-plus-logo" d="M662.21 960h-244.211c-108.823 0-184.152-23.858-251.952-79.867-53.322-46.004-85.144-112.862-85.144-178.854 0-101.673 77.519-209.724 221.167-209.724 13.812 0 29.104 1.417 42.598 2.676l-1.988-4.833c-5.774-13.833-11.242-26.883-11.242-47.252 0-39.658 19.131-64.12 37.628-87.756l2.327-2.993-4.135-0.286c-59.318-4.061-169.727-11.633-250.376-61.201-95.254-56.632-102.657-139.016-102.657-162.906 0-95.053 88.581-190.995 286.492-190.995 230.124 0 350.538 126.96 350.538 252.365 0.021 92.758-54.369 138.55-112.101 187.166l-48.7 37.882c-15.049 12.469-33.789 27.983-33.789 56.727 0 28.258 18.74 46.913 35.28 63.369l1.724 1.745c52.592 41.424 112.196 88.391 112.196 189.979 0 102.139-63.824 154.921-94.514 180.292h81.041c0.994 0 1.988 0.275 2.813 0.814l69.809 43.889c1.988 1.258 2.919 3.68 2.263 5.943-0.624 2.263-2.718 3.818-5.066 3.818zM366.063-8.034c-140.274 0-234.524 65.516-234.524 163.033 0 63.675 38.548 109.944 114.47 137.451 60.799 20.464 139.28 21.479 140.063 21.479 13.293 0 19.977 0 30.595-1.333 98.152-69.852 145.34-106.528 145.34-176.379-0.011-88.983-75.097-144.251-195.944-144.251zM364.741 528.982c-117.727 0-166.586 154.752-166.586 237.612 0 42.133 9.581 74.473 29.294 98.892 21.394 26.767 58.028 44.058 93.329 44.058 108.093 0 167.866-145.287 167.866-245.702 0-15.842 0-64.035-33.292-97.507-22.388-22.346-58.8-37.353-90.611-37.353zM1004.488 481.741h-128.683v128.229c0 2.919-2.38 5.288-5.288 5.288h-55.352c-2.919 0-5.288-2.369-5.288-5.288v-128.229h-128.038c-2.919 0-5.288-2.369-5.288-5.288v-56.093c0-2.908 2.369-5.288 5.288-5.288h128.038v-129.054c0-2.908 2.369-5.288 5.288-5.288h55.352c2.908 0 5.288 2.38 5.288 5.288v129.075h128.683c2.919 0 5.288 2.358 5.288 5.288v56.072c0 2.929-2.358 5.288-5.288 5.288z" />
<glyph unicode="&#xe904;" glyph-name="linkedin-logo" d="M1024 337.332v-378.579h-219.476v353.224c0 88.733-31.745 149.29-111.188 149.29-60.645 0-96.735-40.811-112.612-80.288-5.79-14.113-7.28-33.757-7.28-53.512v-368.714h-219.55c0 0 2.957 598.246 0 660.229h219.529v-93.585c-0.445-0.7-1.024-1.455-1.443-2.133h1.443v2.133c29.167 44.922 81.255 109.095 197.845 109.095 144.447 0.002 252.733-94.363 252.733-297.16zM124.235 937.245c-75.108 0-124.235-49.265-124.235-114.050 0-63.373 47.705-114.133 121.321-114.133h1.467c76.562 0 124.177 50.75 124.177 114.133-1.443 64.785-47.615 114.050-122.73 114.050zM13.039-41.247h219.467v660.229h-219.467v-660.229z" />
<glyph unicode="&#xe905;" glyph-name="twitter-logo-silhouette" d="M1024 765.477c-37.689-16.7-78.129-28.026-120.618-33.083 43.384 25.98 76.594 67.187 92.334 116.139-40.696-24.059-85.616-41.529-133.48-50.999-38.328 40.888-92.846 66.356-153.316 66.356-116.010 0-210.072-94.062-210.072-210.009 0-16.444 1.856-32.505 5.44-47.864-174.559 8.768-329.345 92.399-432.941 219.481-18.109-30.971-28.411-67.059-28.411-105.581 0-72.883 37.113-137.191 93.423-174.815-34.426 1.151-66.804 10.621-95.15 26.363v-2.624c0-101.741 72.435-186.652 168.48-205.978-17.597-4.735-36.153-7.359-55.35-7.359-13.565 0-26.683 1.344-39.544 3.904 26.746-83.505 104.301-144.228 196.188-145.893-71.859-56.31-162.466-89.776-260.879-89.776-16.956 0-33.658 1.024-50.102 2.88 92.975-59.702 203.354-94.511 321.988-94.511 386.423 0 597.648 320.069 597.648 597.648l-0.704 27.195c41.271 29.437 76.976 66.421 105.067 108.526z" />
<glyph unicode="&#xe906;" glyph-name="vk-logo" d="M983.967 152.571c-5.458-0.686-10.948-1.536-16.438-1.569-53.824-0.098-107.648 0.033-161.44-0.163-7.484-0.033-13.824 2.745-19.379 7.222-11.242 9.183-22.811 18.236-33.17 28.432-26.928 26.7-53.171 54.151-79.903 81.112-8.333 8.399-17.222 16.144-25.981 24.085-4.543 4.281-10.229 5.196-16.111 5.098-7.876-0.196-14.379-3.758-17.484-11.046-2.843-6.601-5.196-13.758-5.948-20.817-1.307-12.778-1.373-25.621-1.634-38.399-0.294-14.314-0.719-28.726-4.739-42.648-1.797-6.144-4.346-12.386-7.516-17.941-5.556-9.543-14.314-14.739-25.458-14.968-46.994-1.078-94.021-1.765-140.95 1.307-8.693 0.654-16.7 3.399-24.445 7.222-43.791 21.504-82.256 50.066-115.688 85.687-40.687 43.301-77.615 89.74-114.544 136.178-49.707 62.615-92.681 129.609-131.309 199.48-14.118 25.458-27.745 51.275-37.876 78.694-5 13.53-5 27.092-1.242 40.719 1.078 4.052 3.007 8.007 5.229 11.569 3.17 5.229 8.105 8.137 14.412 8.268 2.222 0.033 4.543 0.098 6.765 0.098 48.824 0 97.583-0.196 146.374 0.163 9.641 0.065 17.026-3.17 23.497-9.706 12.026-12.026 21.373-26.046 29.772-40.621 9.15-15.883 18.301-31.863 26.373-48.334 17.745-36.242 39.51-70.034 62.55-102.975 11.242-16.046 23.399-31.471 35.066-47.19 5.425-7.32 12.941-10.098 21.602-10.327 8.431-0.294 11.863 3.137 12.19 11.569 0.098 2.026 0.065 4.020 0.065 6.046 0 55.099 0 110.132-0.065 165.198 0 4.281 0 8.595-0.425 12.843-0.98 9.837-6.177 15.588-15.915 17.484-4.412 0.85-8.922 1.242-13.399 1.83-13.726 1.797-19.412 7.614-20.85 21.406-2.124 20.817 7.843 37.059 27.353 44.347 8.399 3.137 17.092 3.824 25.981 3.791 43.497-0.065 86.995 0 130.492-0.033 8.824 0 17.647 0.458 26.406-0.327 9.183-0.882 18.464-2.092 27.386-4.706 19.020-5.49 30.033-18.432 32.19-38.367 0.556-4.771 0.686-9.543 0.686-14.314 0.065-33.432 0.065-66.864 0.065-100.295 0-35.458-0.033-70.916 0.065-106.374 0-3.464 0.294-7.092 1.242-10.392 3.105-10.752 14.804-14.314 24.641-7.549 28.987 19.968 48.007 47.778 62.648 78.726 13.53 28.595 25.196 58.073 37.909 87.060 10.164 22.974 20.588 45.818 31.21 68.596 2.582 5.654 6.405 10.784 9.967 15.948 3.235 4.641 7.484 6.667 13.464 6.667 63.171-0.196 126.211-0.163 189.349-0.098 15.458 0 27.713-6.275 37.353-18.007 3.399-4.183 4.804-9.085 5.686-14.477 3.758-24.87-4.771-46.537-16.667-67.419-11.275-19.739-24.674-37.942-39.249-55.229-30.196-35.752-59.805-71.929-85.687-110.982-6.667-10.033-12.353-20.719-18.432-31.079-4.477-7.582-3.889-14.869 1.732-21.634 11.405-13.726 22.451-27.843 34.445-40.948 28.497-31.242 57.713-61.733 86.374-92.812 9.183-10 17.484-20.719 26.013-31.308 2.81-3.497 4.902-7.582 7.647-11.144 21.406-27.647-5.262-69.086-32.255-72.648z" />
<glyph unicode="&#xe907;" glyph-name="search" d="M989.867 27.621l-242.526 253.305c62.877 75.453 97.011 168.87 97.011 265.881 0 228.154-185.039 413.193-413.193 413.193s-413.193-185.039-413.193-413.193 185.039-413.193 413.193-413.193c86.232 0 167.074 25.151 237.137 75.453l244.323-255.102c10.779-10.779 23.354-16.168 39.523-16.168 14.372 0 26.947 5.389 37.726 14.372 21.558 19.761 21.558 53.895 0 75.453zM431.158 852.211c168.87 0 305.404-136.533 305.404-305.404s-136.533-305.404-305.404-305.404-305.404 136.533-305.404 305.404 136.533 305.404 305.404 305.404z" />
<glyph unicode="&#xe908;" glyph-name="cart" d="M37.885 836.986h108.528l154.659-559.356c4.457-16.491 19.611-27.856 36.548-27.856h475.341c15.154 0 28.525 8.914 34.765 22.731l173.155 397.789c5.126 12.034 3.788 25.182-3.12 36.102s-18.942 17.16-31.645 17.16h-525.26c-20.948 0-37.885-17.16-37.885-37.885s16.937-37.885 37.885-37.885h467.318l-140.173-322.020h-421.857l-154.659 559.356c-4.457 16.491-19.611 27.856-36.548 27.856h-137.053c-20.948 0-37.885-16.937-37.885-37.885s17.16-38.108 37.885-38.108zM301.74-16.756c47.244 0 85.798 38.553 85.798 85.798s-38.553 85.798-85.798 85.798-85.798-38.553-85.798-85.798 38.553-85.798 85.798-85.798zM838.588-16.756c2.006 0 4.457 0 6.24 0 22.731 2.006 43.456 12.034 58.833 29.639 15.154 16.937 22.062 39.222 20.948 62.398-3.12 46.799-44.124 82.678-91.592 79.558s-82.678-44.793-79.558-91.592c2.897-44.57 40.113-80.003 85.129-80.003z" />
<glyph unicode="&#xe909;" glyph-name="arr" horiz-adv-x="482" d="M390.807 418.244l55.898 43.912-390.807 497.604-55.898-43.912zM89.57-64l-54.212 47.405 392.734 498.869 54.212-47.405z" />
<glyph unicode="&#xe90a;" glyph-name="rub" horiz-adv-x="742" d="M605.308 536.26c0-67.14-22.906-118.73-68.716-154.874s-111.374-54.216-196.692-54.216h-78.068v-260.786h-77.122v663.1h171.896c165.802 0 248.702-64.408 248.702-193.224zM261.936 393.364h69.346c68.296 0 117.784 11.032 148.36 33.098s45.81 57.474 45.81 106.122c0 43.814-14.394 76.492-43.078 97.926s-73.444 32.256-134.28 32.256h-86.158v-269.4zM127.236 258.558h361.442v-60.94h-361.442v60.94z" />
<glyph unicode="&#xe90b;" glyph-name="close" d="M1024 848l-120 112-400-408-392 400-112-112 392-400-384-384 112-112 384 384 400-392 112 112-400 392z" />
<glyph unicode="&#xe90c;" glyph-name="add" d="M968.428 519.442h-384.988v384.99c0 17.538-23.815 55.566-71.442 55.566s-71.442-38.030-71.442-55.566v-384.992h-384.99c-17.536 0.002-55.566-23.813-55.566-71.438s38.030-71.442 55.566-71.442h384.992v-384.992c0-17.534 23.813-55.566 71.442-55.566s71.442 38.032 71.442 55.566v384.992h384.992c17.534 0 55.566 23.813 55.566 71.442s-38.036 71.44-55.572 71.44z" />
<glyph unicode="&#xe942;" glyph-name="phone" d="M704 320c-64-64-64-128-128-128s-128 64-192 128-128 128-128 192 64 64 128 128-128 256-192 256-192-192-192-192c0-128 131.5-387.5 256-512s384-256 512-256c0 0 192 128 192 192s-192 256-256 192z" />
</font></defs></svg>